#Ion ,Line Energy keV,Upper Level ,Lower Level ,Emissivity ph cm3s-1 ,Te peak keV,Relative Intensity 
Fe VIII,0.074,50,1,6.399E-014,0.04319,0.18
Fe IX,0.072,13,1,3.483E-013,0.06845,1
Fe X,0.071,30,1,1.118E-013,0.08617,0.32
Fe XI,0.069,42,1,9.502E-014,0.1085,0.27
Fe VIII,0.066,45,1,7.524E-014,0.04319,0.22
Fe XII,0.064,27,1,8.429E-014,0.1366,0.24
Fe XIII,0.061,20,1,7.517E-014,0.1366,0.22
