#Ion ,Line Energy keV,Upper Level ,Lower Level ,Emissivity ph cm3s-1 ,Te peak keV,Relative Intensity 
O IV,0.022,9,1,1.429E-012,0.01366,0.11
O V,0.02,5,1,1.249E-011,0.02165,1
N IV,0.016,5,1,2.076E-012,0.01366,0.17
O IV,0.016,6,1,2.9E-012,0.01366,0.23
O III,0.015,8,1,1.148E-012,0.008617,0.09
C III,0.013,5,1,7.264E-012,0.006845,0.58
O VI,0.012,3,1,3.866E-012,0.02725,0.31
H I,0.01,4,1,4.175E-012,0.001366,0.33
C IV,0.008,3,1,3.336E-012,0.008617,0.27
C III,0.007,4,1,1.909E-012,0.006845,0.15
