          10
      7.60556     -2.08153     0.228571     0.228571
      8.10491     -2.15206     0.219780     0.219784
      8.59671     -2.53907     0.202202     0.202198
      9.10309     -2.80300     0.202202     0.184615
      9.32346     -3.82288    0.0791209    0.0791161
      9.59900     -3.50650     0.228575     0.210989
      9.79678     -4.00768     0.114281     0.114285
      10.0597     -4.21877     0.298896     0.281319
      10.3011     -4.35953     0.123076     0.175829
      10.5546     -4.96622     0.685713     0.553845
